colorado-rapids,"Colorado Rapids",http://feeds.newsinc.com/feeds/playlist?format=rss&encoding=utf16&adnetid=90115&sitesection=dash_hom_911_fro&apikey=Scnoz7sXlX1RQBc3paCdVg%253D%253D,18505
sports-business,"Sports Business",http://feeds.newsinc.com/feeds/playlist?format=rss&encoding=utf16&adnetid=90115&sitesection=dash_hom_911_fro&apikey=6f160eR6mYMtskvmTU4HqA%253D%253D,18514
nhl-colorado-avalanche,"NHL Colorado Avalanche",http://feeds.newsinc.com/feeds/playlist?format=rss&encoding=utf16&adnetid=90115&sitesection=dash_hom_911_fro&apikey=wxe26VJTnAjFLgTRSxXuTw%253D%253D,18509
mlb-colorado-rockies,"MLB Colorado Rockies",http://feeds.newsinc.com/feeds/playlist?format=rss&encoding=utf16&adnetid=90115&sitesection=dash_hom_911_fro&apikey=vh%252FkfrWmnXU%252FvyS2lBBj0Q%253D%253D,18504
nba-denver-nuggets,"NBA Denver Nuggets",http://feeds.newsinc.com/feeds/playlist?format=rss&encoding=utf16&adnetid=90115&sitesection=dash_hom_911_fro&apikey=KWjfbaYgEyD6Ge3E%252B%252F7ddg%253D%253D,18507
nfl,"NFL",http://feeds.newsinc.com/feeds/playlist?format=rss&encoding=utf16&adnetid=90115&sitesection=dash_hom_911_fro&apikey=sB9SsWJoQxji1qD3QeUu2Q%253D%253D,18508
you-gotta-see-this,"You gotta see this",http://feeds.newsinc.com/feeds/playlist?format=rss&encoding=utf16&adnetid=90115&sitesection=dash_hom_911_fro&apikey=av5AtZet%252FWwY7NF0W%252Fi01Q%253D%253D,18516
social-animals,"Social animals",http://feeds.newsinc.com/feeds/playlist?format=rss&encoding=utf16&adnetid=90115&sitesection=dash_hom_911_fro&apikey=xeTw8R6TvMY07aSnhsVEkA%253D%253D,18512
pop-a-shot-sports-show,"Pop a shot sports show",http://feeds.newsinc.com/feeds/playlist?format=rss&encoding=utf16&adnetid=90115&sitesection=dash_hom_911_fro&apikey=W2DcTWvuVqXCNjcuhHCg3Q%253D%253D,18511
pick-six,"Pick six",http://feeds.newsinc.com/feeds/playlist?format=rss&encoding=utf16&adnetid=90115&sitesection=dash_hom_911_fro&apikey=76JmJ6sl23xNme3mDUIJUQ%253D%253D,18510
more-with-les,"More with les",http://feeds.newsinc.com/feeds/playlist?format=rss&encoding=utf16&adnetid=90115&sitesection=dash_hom_911_fro&apikey=NcQ4FrYKF%252BX6Dg6xHBUPag%253D%253D,18506
the-big-stuff,"The big stuff",http://feeds.newsinc.com/feeds/playlist?format=rss&encoding=utf16&adnetid=90115&sitesection=dash_hom_911_fro&apikey=z9SgagsvJgk1BvqOTIAPxg%253D%253D,18513
woodys-world,"Woodys world",http://feeds.newsinc.com/feeds/playlist?format=rss&encoding=utf16&adnetid=90115&sitesection=dash_hom_911_fro&apikey=%252Fa6UdPvrBBYIBjNViN4uog%253D%253D,18515
broncos,"Broncos",http://feeds.newsinc.com/feeds/playlist?format=rss&encoding=utf16&adnetid=90115&sitesection=dash_hom_911_fro&apikey=%252http://feeds.newsinc.com/feeds/playlist?format=rss&encoding=utf16&adnetid=90115&sitesection=dash_hom_911_fro&apikey=%252FiFjjPdITcvHOxclOYvuMQoA%253D%253D,18477
guests,"Guests",http://feeds.newsinc.com/feeds/playlist?format=rss&encoding=utf16&adnetid=90115&sitesection=dash_hom_911_fro&apikey=rP4B19zyTnbV9clg7%252Fg2Kw%253D%253D,18503
sports-show,"Sports show",http://feeds.newsinc.com/feeds/playlist?format=rss&encoding=utf16&adnetid=90115&sitesection=dash_hom_911_fro&apikey=ONeVjCOVpmjJt5DBvO09Vw%253D%253D,18501
sports,"Sports",http://feeds.newsinc.com/feeds/playlist?format=rss&encoding=utf16&adnetid=90115&sitesection=dash_hom_911_fro&apikey=GG5Rz%2BIf%2FJ0Oh9XmfQzAxA%3D%3D,18474
